…
read_kgr <- function(path){
  df <- readr::read_rds(path) |> 
    janitor::clean_names() |> 
    dplyr::rename(dplyr::any_of(new_names))
  
  nome <- df[3] |> names()    
  new_name <- c(value = nome)
  df <- df |> 
    mutate(
      variable = nome
    ) |> 
    dplyr::rename(dplyr::any_of(new_name))
  return(df)  
};read_kgr(file_kgr[1])
#> # A tibble: 3,815 × 7
#>      lon   lat value city_ref      state  year variable
#>    <dbl> <dbl> <dbl> <chr>         <chr> <int> <chr>   
#>  1 -55.4 -23.6 1812. Paranhos      MS     2015 xch4    
#>  2 -54.9 -23.6 1812. Tacuru        MS     2015 xch4    
#>  3 -54.4 -23.6 1812. Iguatemi      MS     2015 xch4    
#>  4 -55.4 -23.1 1812. Amambai       MS     2015 xch4    
#>  5 -54.9 -23.1 1812. Amambai       MS     2015 xch4    
#>  6 -54.4 -23.1 1812. Naviraí       MS     2015 xch4    
#>  7 -53.9 -23.1 1812. Naviraí       MS     2015 xch4    
#>  8 -55.4 -22.6 1812. Laguna Carapã MS     2015 xch4    
#>  9 -54.9 -22.6 1812. Caarapó       MS     2015 xch4    
#> 10 -54.4 -22.6 1812. Jateí         MS     2015 xch4    
#> # ℹ 3,805 more rows

data_set_kgr <- map_df(file_kgr,read_kgr)
data_set_kgr |> 
  group_by(year, state, city_ref, variable) |> 
  summarise(
    value_mean = mean(value, na.rm=TRUE),
    .groups = "drop") |> 
  pivot_wider(names_from = variable, values_from = value_mean)
#> # A tibble: 3,281 × 13
#>     year state city_ref  precipitacao pressao radiacao sif_757   t2m temperatura
#>    <int> <chr> <chr>            <dbl>   <dbl>    <dbl>   <dbl> <dbl>       <dbl>
#>  1  2015 DF    Brasília          2.62    90.7     20.5   0.234  23.2        23.2
#>  2  2015 GO    Abadiânia        NA       NA       NA    NA      NA          NA  
#>  3  2015 GO    Acreúna           3.33    94.4     19.8   0.241  24.7        24.7
#>  4  2015 GO    Alexânia         NA       NA       NA    NA      NA          NA  
#>  5  2015 GO    Alto Par…        NA       NA       NA    NA      NA          NA  
#>  6  2015 GO    Alvorada…        NA       NA       NA     0.153  NA          NA  
#>  7  2015 GO    Amaralina         2.71    97.1     20.4  NA      27.9        27.9
#>  8  2015 GO    Amorinóp…        NA       NA       NA     0.229  NA          NA  
#>  9  2015 GO    Anicuns           3.25    93.5     20.1  NA      24.6        24.6
#> 10  2015 GO    Anápolis          3.30    90.7     20.2  NA      22.9        22.9
#> # ℹ 3,271 more rows
#> # ℹ 4 more variables: umidade <dbl>, vento <dbl>, xch4 <dbl>, xco2 <dbl>

data_set_kgr |> 
  group_by(year,state) |> 
  count()
#> # A tibble: 36 × 3
#> # Groups:   year, state [36]
#>     year state     n
#>    <int> <chr> <int>
#>  1  2015 DF       21
#>  2  2015 GO     1147
#>  3  2015 MS     1240
#>  4  2015 MT     3026
#>  5  2016 DF       21
#>  6  2016 GO     1147
#>  7  2016 MS     1240
#>  8  2016 MT     3026
#>  9  2017 DF       21
#> 10  2017 GO     1147
#> # ℹ 26 more rows
```
…
